---
http_interactions:
- request:
    method: get
    uri: https://api.test.datacite.org/dois/10.14454/05MB-Q396/media
    body:
      encoding: US-ASCII
      string: ''
    headers:
      User-Agent:
      - Mozilla/5.0 (compatible; Maremma/4.1.1; +https://github.com/datacite/maremma)
      Content-Type:
      - application/vnd.api+json
      Accept:
      - text/html,application/json,application/xml;q=0.9, text/plain;q=0.8,image/png,*/*;q=0.5
      Authorization:
      - Basic <MDS_TOKEN>
  response:
    status:
      code: 200
      message: ''
    headers:
      Date:
      - Tue, 20 Nov 2018 22:52:03 GMT
      Content-Type:
      - application/json; charset=utf-8
      Connection:
      - keep-alive
      Status:
      - 200 OK
      Cache-Control:
      - max-age=0, private, must-revalidate
      Vary:
      - Accept-Encoding, Origin
      X-Credential-Username:
      - datacite.datacite
      X-Request-Id:
      - 7bd99687-0631-447a-bce9-7a2a9913b1eb
      Etag:
      - W/"72bcd0dbef599e98b55e970b35f3b8b4"
      X-Runtime:
      - '0.018373'
      X-Powered-By:
      - Phusion Passenger 5.3.7
      Server:
      - nginx/1.14.0 + Phusion Passenger 5.3.7
    body:
      encoding: ASCII-8BIT
      string: '{"data":[{"id":"0000-0000-0000-n06v","type":"media","attributes":{"version":1,"url":"https://schema.datacite.org/meta/kernel-4.1/doc/DataCite-MetadataKernel_v4.1.pdf","mediaType":"application/pdf","created":"2018-11-20T22:15:35.000Z","updated":"2018-11-20T22:15:35.000Z"},"relationships":{"doi":{"data":{"id":"10.14454/05MB-Q396","type":"dois"}}}}],"included":[{"id":"10.14454/05mb-q396","type":"dois","attributes":{"doi":"10.14454/05mb-q396","identifier":"https://handle.test.datacite.org/10.14454/05mb-q396","creator":[],"titles":[],"publisher":null,"periodical":null,"publicationYear":null,"subjects":[],"contributor":[],"dates":[],"language":null,"types":{"ris":"GEN","bibtex":"misc","citeproc":"article","schemaOrg":"CreativeWork"},"alternateIdentifiers":null,"relatedIdentifiers":null,"sizes":[],"formats":[],"version":null,"rightsList":null,"descriptions":[],"geoLocations":null,"fundingReferences":null,"url":"https://www.datacite.org/roadmap.html","contentUrl":null,"metadataVersion":0,"schemaVersion":null,"source":"mds","isActive":false,"state":"draft","reason":null,"created":"2018-11-19T08:22:09.000Z","registered":null,"updated":"2018-11-20T22:15:32.000Z"},"relationships":{"client":{"data":{"id":"datacite.datacite","type":"clients"}},"media":{"data":[{"id":"0000-0000-0000-n06v","type":"media"}]}}}],"meta":{"total":1,"total-pages":1,"page":1},"links":{"self":"https://api.test.datacite.org/dois/10.14454/05MB-Q396/media","next":"https://api.test.datacite.org/media?page%5Bnumber%5D=1"}}'
    http_version: 
  recorded_at: Tue, 20 Nov 2018 22:52:03 GMT
recorded_with: VCR 3.0.3
